…
get_tournament_games()

Let’s take a closer look at these functions in action…

Player functions

Use get_players() to extract biographical information on players currently ranked within the top 500.

library(squashinformr)
library(tidyverse)

(top_25_men <- get_players(top = 25, category = "mens"))

## # A tibble: 25 x 15
##     rank first last    age gender birthplace nationality residence height weight
##    <dbl> <chr> <chr> <dbl> <chr>  <chr>      <chr>       <chr>      <dbl>  <dbl>
##  1     1 Moha~ Elsh~    29 Male   Alexandria Egypt       Bristol,~    185     82
##  2     2 Ali   Farag    28 Male   Cairo      Egypt       Cairo        183     70
##  3     3 Karim Abde~    28 Male   Alexandria Egypt       Giza         173     72
##  4     4 Tarek Momen    32 Male   Cairo      Egypt       Cairo        174     66
##  5     5 Paul  Coll     27 Male   Greymouth  New Zealand Amsterda~    179     83
##  6     6 Diego Elias    23 Male   Lima       Peru        Lima         188     82
##  7     7 Marw~ Elsh~    26 Male   Alexandria Egypt       Bristol,~    183     73
##  8     8 Simon Rösn~    32 Male   Wurzburg   Germany     Paderborn    190     89
##  9     9 Migu~ Rodr~    34 Male   Bogota     Colombia    Bogota       170     72
## 10    10 Joel  Makin    25 Male   Haverford~ Wales       Birmingh~    180     80
## # ... with 15 more rows, and 5 more variables: plays <chr>, racket <chr>,
## #   joined_psa <dbl>, university <chr>, club <chr>
…
The data returned from SquashInfo seem to imply that this is not the case! Age, height, weight, and BMI do not seem to have any clear relationship with PSA rankings. There are many other factors that can contribute to player success including physical endurance, positioning, accuracy, and strategic playstyle.

Recent match data

Use get_player_recent_matches() to retrieve a player’s recent match data (past January 1, 2019). Let’s get Raneem El Welily’s recent match data.

(welily <- get_player_recent_matches(player = "Raneem El Welily", category = "womens"))

## # A tibble: 71 x 12
##     rank player opponent result games_won games_lost match_time round date      
##    <int> <chr>  <chr>    <chr>      <dbl>      <dbl>      <dbl> <chr> <date>    
##  1     1 Ranee~ Nour El~ L              2          3         72 QF    2020-03-01
##  2     1 Ranee~ Yathreb~ W             NA         NA         NA R3    2020-03-01
##  3     1 Ranee~ Alexand~ W              3          1         36 R2    2020-03-01
##  4     1 Ranee~ Nour El~ L              2          3         59 F     2020-03-01
##  5     1 Ranee~ Nouran ~ W              3          0         31 SF    2020-03-01
##  6     1 Ranee~ Olivia ~ W              3          0         29 QF    2020-03-01
##  7     1 Ranee~ Salma H~ W              3          0         22 R3    2020-03-01
##  8     1 Ranee~ Juliann~ W              3          0         26 R2    2020-03-01
##  9     1 Ranee~ Nouran ~ W              1          0         15 F     2020-02-01
## 10     1 Ranee~ Hania E~ W              3          0         40 SF    2020-02-01
## # ... with 61 more rows, and 3 more variables: event <chr>, country <chr>,
## #   psa <chr>
…
Ranking functions

…

Tournament functions

squashinformr allows provides useful functions for pulling tournament data at multiple levels of detail; metadata, players, matches, and games.

The lowest level of detail is the tournament games, accessed via get_tournament_games(). Let’s look at the most recent iteration of the JP Morgan Tournament of Champions, one of the premier squash tournaments for both categories.

## Return game data for 2020's Tournament of Champions.
(toc <- get_tournament_games("tournament of champions", year = 2020))

## # A tibble: 388 x 15
##    tournament_name category tournament_date round match  game player_1 player_2
##    <chr>           <chr>    <date>          <ord> <int> <int> <chr>    <chr>   
##  1 JP Morgan Tour~ Men's    2020-01-17      F        64     4 Mohamed~ Tarek M~
##  2 JP Morgan Tour~ Men's    2020-01-17      F        64     3 Mohamed~ Tarek M~
##  3 JP Morgan Tour~ Men's    2020-01-17      F        64     2 Mohamed~ Tarek M~
##  4 JP Morgan Tour~ Men's    2020-01-17      F        64     1 Mohamed~ Tarek M~
##  5 JP Morgan Tour~ Women's  2020-01-17      F        62     3 Camille~ Nour El~
##  6 JP Morgan Tour~ Women's  2020-01-17      F        62     2 Camille~ Nour El~
##  7 JP Morgan Tour~ Women's  2020-01-17      F        62     1 Camille~ Nour El~
##  8 JP Morgan Tour~ Men's    2020-01-17      SF       63     5 Tarek M~ Ali Far~
##  9 JP Morgan Tour~ Men's    2020-01-17      SF       63     4 Tarek M~ Ali Far~
## 10 JP Morgan Tour~ Men's    2020-01-17      SF       63     3 Tarek M~ Ali Far~
## # ... with 378 more rows, and 7 more variables: game_winner <chr>,
## #   player_1_score <dbl>, player_2_score <dbl>, player_1_seed <dbl>,
## #   player_2_seed <dbl>, player_1_nationality <chr>, player_2_nationality <chr>
…
